{
  "calendario": [
    {
      "partidos": [
        {
          "equipo1": {
            "nombre": "River",
            "capacidad": 4
          },
          "equipo2": {
            "nombre": "Boca",
            "capacidad": 4
          },
          "arbitro": 0
        },
        {
          "equipo1": {
            "nombre": "Independiente",
            "capacidad": 4
          },
          "equipo2": {
            "nombre": "San Lorenzo",
            "capacidad": 4
          },
          "arbitro": 0
        },
        {
          "equipo1": {
            "nombre": "Huracan",
            "capacidad": 4
          },
          "equipo2": {
            "nombre": "Quilmes",
            "capacidad": 4
          },
          "arbitro": 0
        }
      ],
      "ultimoArbitro": 0
    },
    {
      "partidos": [
        {
          "equipo1": {
            "nombre": "River",
            "capacidad": 4
          },
          "equipo2": {
            "nombre": "Independiente",
            "capacidad": 4
          },
          "arbitro": 0
        },
        {
          "equipo1": {
            "nombre": "Huracan",
            "capacidad": 4
          },
          "equipo2": {
            "nombre": "Boca",
            "capacidad": 4
          },
          "arbitro": 0
        },
        {
          "equipo1": {
            "nombre": "Quilmes",
            "capacidad": 4
          },
          "equipo2": {
            "nombre": "San Lorenzo",
            "capacidad": 4
          },
          "arbitro": 0
        }
      ],
      "ultimoArbitro": 0
    },
    {
      "partidos": [
        {
          "equipo1": {
            "nombre": "River",
            "capacidad": 4
          },
          "equipo2": {
            "nombre": "Huracan",
            "capacidad": 4
          },
          "arbitro": 0
        },
        {
          "equipo1": {
            "nombre": "Quilmes",
            "capacidad": 4
          },
          "equipo2": {
            "nombre": "Independiente",
            "capacidad": 4
          },
          "arbitro": 0
        },
        {
          "equipo1": {
            "nombre": "San Lorenzo",
            "capacidad": 4
          },
          "equipo2": {
            "nombre": "Boca",
            "capacidad": 4
          },
          "arbitro": 0
        }
      ],
      "ultimoArbitro": 0
    },
    {
      "partidos": [
        {
          "equipo1": {
            "nombre": "River",
            "capacidad": 4
          },
          "equipo2": {
            "nombre": "Quilmes",
            "capacidad": 4
          },
          "arbitro": 0
        },
        {
          "equipo1": {
            "nombre": "San Lorenzo",
            "capacidad": 4
          },
          "equipo2": {
            "nombre": "Huracan",
            "capacidad": 4
          },
          "arbitro": 0
        },
        {
          "equipo1": {
            "nombre": "Boca",
            "capacidad": 4
          },
          "equipo2": {
            "nombre": "Independiente",
            "capacidad": 4
          },
          "arbitro": 0
        }
      ],
      "ultimoArbitro": 0
    },
    {
      "partidos": [
        {
          "equipo1": {
            "nombre": "River",
            "capacidad": 4
          },
          "equipo2": {
            "nombre": "San Lorenzo",
            "capacidad": 4
          },
          "arbitro": 0
        },
        {
          "equipo1": {
            "nombre": "Boca",
            "capacidad": 4
          },
          "equipo2": {
            "nombre": "Quilmes",
            "capacidad": 4
          },
          "arbitro": 0
        },
        {
          "equipo1": {
            "nombre": "Independiente",
            "capacidad": 4
          },
          "equipo2": {
            "nombre": "Huracan",
            "capacidad": 4
          },
          "arbitro": 0
        }
      ],
      "ultimoArbitro": 0
    }
  ]
}