{
  "calendario": [
    {
      "partidos": [
        {
          "equipo1": {
            "nombre": "River",
            "capacidad": 4
          },
          "equipo2": {
            "nombre": "Boca",
            "capacidad": 4
          },
          "arbitro": 1
        },
        {
          "equipo1": {
            "nombre": "Independiente",
            "capacidad": 4
          },
          "equipo2": {
            "nombre": "San Lorenzo",
            "capacidad": 4
          },
          "arbitro": 2
        },
        {
          "equipo1": {
            "nombre": "Huracan",
            "capacidad": 4
          },
          "equipo2": {
            "nombre": "Quilmes",
            "capacidad": 4
          },
          "arbitro": 3
        }
      ],
      "ultimoArbitro": 3
    },
    {
      "partidos": [
        {
          "equipo1": {
            "nombre": "River",
            "capacidad": 4
          },
          "equipo2": {
            "nombre": "Independiente",
            "capacidad": 4
          },
          "arbitro": 3
        },
        {
          "equipo1": {
            "nombre": "Huracan",
            "capacidad": 4
          },
          "equipo2": {
            "nombre": "Boca",
            "capacidad": 4
          },
          "arbitro": 2
        },
        {
          "equipo1": {
            "nombre": "Quilmes",
            "capacidad": 4
          },
          "equipo2": {
            "nombre": "San Lorenzo",
            "capacidad": 4
          },
          "arbitro": 1
        }
      ],
      "ultimoArbitro": 1
    },
    {
      "partidos": [
        {
          "equipo1": {
            "nombre": "River",
            "capacidad": 4
          },
          "equipo2": {
            "nombre": "Huracan",
            "capacidad": 4
          },
          "arbitro": 1
        },
        {
          "equipo1": {
            "nombre": "Quilmes",
            "capacidad": 4
          },
          "equipo2": {
            "nombre": "Independiente",
            "capacidad": 4
          },
          "arbitro": 2
        },
        {
          "equipo1": {
            "nombre": "San Lorenzo",
            "capacidad": 4
          },
          "equipo2": {
            "nombre": "Boca",
            "capacidad": 4
          },
          "arbitro": 3
        }
      ],
      "ultimoArbitro": 3
    },
    {
      "partidos": [
        {
          "equipo1": {
            "nombre": "River",
            "capacidad": 4
          },
          "equipo2": {
            "nombre": "Quilmes",
            "capacidad": 4
          },
          "arbitro": 2
        },
        {
          "equipo1": {
            "nombre": "San Lorenzo",
            "capacidad": 4
          },
          "equipo2": {
            "nombre": "Huracan",
            "capacidad": 4
          },
          "arbitro": 1
        },
        {
          "equipo1": {
            "nombre": "Boca",
            "capacidad": 4
          },
          "equipo2": {
            "nombre": "Independiente",
            "capacidad": 4
          },
          "arbitro": 3
        }
      ],
      "ultimoArbitro": 3
    },
    {
      "partidos": [
        {
          "equipo1": {
            "nombre": "River",
            "capacidad": 4
          },
          "equipo2": {
            "nombre": "San Lorenzo",
            "capacidad": 4
          },
          "arbitro": 2
        },
        {
          "equipo1": {
            "nombre": "Boca",
            "capacidad": 4
          },
          "equipo2": {
            "nombre": "Quilmes",
            "capacidad": 4
          },
          "arbitro": 1
        },
        {
          "equipo1": {
            "nombre": "Independiente",
            "capacidad": 4
          },
          "equipo2": {
            "nombre": "Huracan",
            "capacidad": 4
          },
          "arbitro": 3
        }
      ],
      "ultimoArbitro": 3
    }
  ]
}